BANA 7025 - Data Wrangling Project
…
# Checking distinct dates in each month of each year

hotels %>% 
  group_by(arrival_date_year,arrival_date_month) %>% 
  summarise(Count = n_distinct(arrival_date_day_of_month))

## `summarise()` has grouped output by 'arrival_date_year'. You can override using the `.groups` argument.

## # A tibble: 26 x 3
## # Groups:   arrival_date_year [3]
##    arrival_date_year arrival_date_month Count
##                <int> <chr>              <int>
##  1              2015 August                31
##  2              2015 December              31
##  3              2015 July                  31
##  4              2015 November              30
##  5              2015 October               31
##  6              2015 September             30
##  7              2016 April                 30
##  8              2016 August                31
##  9              2016 December              31
## 10              2016 February              29
## # ... with 16 more rows
…
